{
	"builder": "cmake",
	"dependencies_target": [
		"libpulse-dev",
		"libfreetype6-dev",
		"libjpeg-dev",
		"libboost-filesystem-dev",
		"libboost-system-dev",
		"libgles2-mesa=11.2.0-1ubuntu2",
		"libgles2-mesa-dev=11.2.0-1ubuntu2",
		"mesa-common-dev=11.2.0-1ubuntu2",
		"libgl1-mesa-glx=11.2.0-1ubuntu2",
		"libgl1-mesa-dev=11.2.0-1ubuntu2",
		"libgles1-mesa-dev=11.2.0-1ubuntu2",
		"libgles1-mesa=11.2.0-1ubuntu2",
		"libglapi-mesa=11.2.0-1ubuntu2",		
		"libsfml-graphics2.3v5=2.3.2+dfsg-1",		
		"libsfml-window2.3v5=2.3.2+dfsg-1",		
		"freeglut3=2.8.1-2",
		"freeglut3-dev=2.8.1-2",
		"libxmu-dev",
		"libxi-dev",
		"libsfml-dev",
		"libpulse-dev",
		"libubuntu-application-api-dev"
	]
}
