{
	"builder": "cmake",
	"dependencies_target": [
		"libpulse-dev:armhf",
		"libfreetype6-dev:armhf",
		"libjpeg-dev:armhf",
		"libboost-filesystem-dev:armhf",
		"libboost-system-dev:armhf",
		"libgles2-mesa:armhf=11.2.0-1ubuntu2",
		"libgles2-mesa-dev:armhf=11.2.0-1ubuntu2",
		"mesa-common-dev:armhf=11.2.0-1ubuntu2",
		"libgl1-mesa-glx:armhf=11.2.0-1ubuntu2",
		"libgl1-mesa-dev:armhf=11.2.0-1ubuntu2",
		"libgles1-mesa-dev:armhf=11.2.0-1ubuntu2",
		"libgles1-mesa:armhf=11.2.0-1ubuntu2",
		"libglapi-mesa:armhf=11.2.0-1ubuntu2",
		"libsfml-graphics2.3v5:armhf=2.3.2+dfsg-1",
		"libsfml-window2.3v5:armhf=2.3.2+dfsg-1",
		"freeglut3:armhf=2.8.1-2",
		"freeglut3-dev:armhf=2.8.1-2",
		"libxmu-dev:armhf",
		"libxi-dev:armhf",
		"libsfml-dev:armhf",
		"libpulse-dev:armhf",
		"libubuntu-application-api-dev:armhf"
	]
}
